﻿[
	{
		"_id":"c-100",
		"_parentId":"b-100",
		"_type":"component",
		"_component":"graphic",
		"_classes":"",
		"_layout":"full",
		"title":"立足当地，走向全球",
		"displayTitle":"",
		"body":"无论身处何地，客户都会花时间使用 Facebook、Instagram 以及隶属 Facebook Audience Network 的网站和应用（这里同样可以展示来自 Facebook 的广告）。",
		"instruction":"",
		"_graphic": {
			"alt": "两个女性一起自拍",
			"small": "course/en/images/intro.png",
			"large": "course/en/images/intro.png"
		},
		"_pageLevelProgress": {
			"_isEnabled": false
		}
	},
	{
		"_id":"c-110",
		"_parentId":"b-110",
		"_type":"component",
		"_component":"text",
		"_classes":"",
		"_layout":"full",
		"title":"跨境商机",
		"displayTitle":"",
		"body":"Facebook 每月的用户数量多达 19 亿<sup>1</sup>，且有超过一半的用户与居住地以外的商家建立了联系。<sup>2</sup> 这为全球各地大小规模的商家带来了实现下列目标的良机：<br><br><ul><li>在用户高度活跃的平台开展营销</li><li>与优质用户建立联系</li><li>进军新市场，实现业务增长</li></ul><br>2016 年，全球有 47.3% 的互联网用户（占全球人口的 22.1%）在网上购物。<sup>3</sup> 到 2021 年，跨境电子商务比重预计达到电子商务总量的 15%。<sup>4</sup> 所以，应趁早开始为您的公司部署和实施海外业务拓展策略。<br><br>本课程将讲述下列内容：<br><br><ul><li>哪些工具可帮助您优化 Facebook 广告和定位目标受众。</li><li>跨境电商的机遇和障碍是什么？</li><li>如何结合使用不同的 Facebook 工具面向目标受众投放优质广告。</li></ul><br><br><sup>1</sup>数据来源：Facebook 业绩发布会，2017 年 2 月：Facebook 的月活跃用户数达 18.6 亿。<br><sup>2</sup>数据来源：Facebook 内部数据，2016 年 8 月：超过 10 亿 Facebook 用户与至少一个国外商家建立了联系。<br><sup>3</sup>数据来源：Worldwide Retail Ecommerce Sales（eMarketer，2016 年 8 月）。<br><sup>4</sup>数据来源：Cross-Border eCommerce 2017（eMarketer，2017 年 3 月）。",
		"instruction":"",
		"_pageLevelProgress": {
			"_isEnabled": true
		}
	},
	{
		"_id": "c-199",
		"_parentId": "b-199",
		"_type": "component",
		"_component": "co-jump",
		"_classes": "color-test",
		"_preLinkBody": "下面，我们一起来看看 Facebook 的 ",
		"_linkBody": "跨境营销解决方案",
		"_postLinkBody": " ，学习如何打破地域限制，在适当的时机向优质用户营销。",
		"_link": "#/id/co-200",
		"_graphic": "adapt/css/assets/icon_nextPage.png",
		"_pageLevelProgress": {
			"_isEnabled": false
		}
	},
	{
		"_id":"c-200",
		"_parentId":"b-200",
		"_type":"component",
		"_component":"graphic",
		"_classes":"",
		"_layout":"full",
		"title":"Facebook 解决方案",
		"displayTitle":"",
		"body":"Facebook 开发了各种工具和产品，帮助小型商家发展壮大，让地方性商家走向全球。",
		"instruction":"",
		"_graphic": {
			"alt": "酒店房间内桌子上放置的护照",
			"small": "course/en/images/solutions.png",
			"large": "course/en/images/solutions.png"
		},
		"_pageLevelProgress": {
			"_isEnabled": false
		}
	},
	{
		"_id":"c-210",
		"_parentId":"b-210",
		"_type":"component",
		"_component":"text",
		"_classes":"",
		"_layout":"full",
		"title":"Facebook 工具",
		"displayTitle":"",
		"body":"<h2 style='margin-bottom:.4em;'>发掘潜在客户</h2><strong>受众分析</strong>可提供 Facebook 主页互动用户的行为、人口统计信息和消费心理等方面的数据。<strong>Facebook IQ</strong> 网站汇总了多项国际研究调查，营销者可以根据这些信息调整营销策略。<br><br><h2 style='margin-top:.4em;margin-bottom:.4em;'>在转化漏斗的每个阶段恰当营销</h2><strong>Facebook 像素</strong>和 <strong>SDK</strong> 让营销者能够追踪潜在客户的体验过程，从而可根据用户在其网站或应用中采取的操作，向这些用户投放特定的广告内容。<br><br><h2 style='margin-top:.4em;margin-bottom:.4em;'>打破地域限制，向优质用户营销</h2>借助 Facebook，营销者可以在保障客户隐私安全的情况下，根据 CRM 数据创建<strong>自定义受众</strong>，还可在现有最优客户群的基础上创建<strong>类似受众</strong>，挖掘新的潜在客户。</li><br><br>您可以使用受众分析或像素数据确定自定义受众或类似受众，根据业务目标结合利用这些客户挖掘机制。",
		"instruction":"",
		"_pageLevelProgress": {
			"_isEnabled": true
		}
	},
	{
		"_id":"c-220",
		"_parentId":"b-220",
		"_type":"component",
		"_component":"graphic",
		"_classes":"",
		"_layout":"full",
		"title":"受众分析报告",
		"displayTitle":"发掘潜在客户",
		"body":"<h2>受众分析</h2><a href='https://www.facebook.com/business/news/audience-insights' target='_blank'>受众分析</a>是主页的报告面板，可提供各项指标数据，帮助您了解用户在主页中采取的操作（如赞、查看、评论、分享），以及主页的覆盖人数和参与度。受众分析还会捕获用户与网站（需安装像素）或移动应用（需安装 SDK）互动的相关数据。",
		"instruction":"",
		"_graphic": {
			"alt": "受众分析工具中覆盖人数指标的截图",
			"small": "course/en/images/ai_reach.png",
			"large": "course/en/images/ai_reach.png"
		},
		"_pageLevelProgress": {
			"_isEnabled": true
		}
	},
	{
		"_id":"c-230",
		"_parentId":"b-230",
		"_type":"component",
		"_component":"graphic",
		"_classes":"",
		"_layout":"full",
		"title":"",
		"displayTitle":"",
		"body":"您可以按照年龄、性别、国家/地区、城市和设备查看这些数据，了解与您 Facebook 主页建立联系的用户的特征。",
		"instruction":"",
		"_graphic": {
			"alt": "受众分析工具中人口统计数据指标的截图",
			"small": "course/en/images/ai_demo.png",
			"large": "course/en/images/ai_demo.png"
		},
		"_pageLevelProgress": {
			"_isEnabled": false
		}
	},
	{
		"_id":"c-240",
		"_parentId":"b-240",
		"_type":"component",
		"_component":"graphic",
		"_classes":"",
		"_layout":"full",
		"title":"Facebook IQ 研究",
		"displayTitle":"",
		"body":"<h2>Facebook IQ</h2><a href='https://insights.fb.com/' target='_blank'>Facebook IQ</a> 结合第三方研究机构和 Facebook 数据，帮助营销者更深入地了解各年龄段、地区、使用不同设备和于不同时段使用的用户。Facebook IQ 会聚焦即将到来的假日和活动，分析其中的潜在商机，另外，每月还会重点探讨不同的热门话题，涵盖各行各业。",
		"instruction":"",
		"_graphic": {
			"alt": "Facebook IQ 首页的截图",
			"small": "course/en/images/fbiq.png",
			"large": "course/en/images/fbiq.png"
		},
		"_pageLevelProgress": {
			"_isEnabled": true
		}
	},
	{
		"_id":"c-250",
		"_parentId":"b-250",
		"_type":"component",
		"_component":"text",
		"_classes":"",
		"_layout":"full",
		"title":"借助像素和 SDK 追踪客户的体验流程",
		"displayTitle":"追踪客户的体验流程",
		"body":"借助 Facebook 像素和 SDK，您可以了解用户对您的网站和移动应用的使用情况。这两种工具都能帮您分析并找到有强劲需求的用户群，从而优化广告投放。您可以根据用户所处的营销漏斗位置，并突破地理限制，向他们投放广告和进行再营销。",
		"instruction":"",
		"_pageLevelProgress": {
			"_isEnabled": false
		}
	},
	{
		"_id":"c-252",
		"_parentId":"b-250",
		"_type":"component",
		"_component":"graphic",
		"_classes":"",
		"_layout":"left",
		"title":"用于追踪网站事件的像素",
		"displayTitle":"",
		"body":"<h2>Facebook 像素</h2>",
		"instruction":"",
		"_graphic": {
			"alt": "Facebook 像素图标",
			"small": "course/en/images/icon_pixel.png",
			"large": "course/en/images/icon_pixel.png"
		},
		"_pageLevelProgress": {
			"_isEnabled": true
		}
	},
	{
		"_id":"c-255",
		"_parentId":"b-250",
		"_type":"component",
		"_component":"text",
		"_classes":"",
		"_layout":"right",
		"title":"像素",
		"displayTitle":"",
		"body":"<a href='https://www.facebook.com/business/a/facebook-pixel' target='_blank'>Facebook 像素</a>有助于 Facebook 的广告服务器识别出登录了 Facebook 的用户，无论他们使用的是什么设备。它是一小段代码，您（或网站开发者）可以将它复制并粘贴到现有网站中。<br><br>您可以指定触发像素的网页和网站操作。例如，营销者可以追踪“将商品加入购物车”等事件，然后向放弃购物车的用户投放广告，吸引他们完成购买或添加更多商品以获得折扣优惠。",
		"instruction":"",
		"_pageLevelProgress": {
			"_isEnabled": false
		}
	},
	{
		"_id":"c-265",
		"_parentId":"b-260",
		"_type":"component",
		"_component":"text",
		"_classes":"",
		"_layout":"left",
		"title":"用于追踪应用事件的 Facebook SDK",
		"displayTitle":"",
		"body":"<h2>Facebook SDK</h2>对于移动应用来说，Facebook 的<a href='https://developers.facebook.com/docs/app-ads/sdk' target='_blank'>软件开发工具包</a> (SDK) 与像素的作用同等。应用开发者可以追踪“将商品加入心愿单”或“完成注册”等事件，然后根据这些事件定位受众，以提高应用使用率和转化量。游戏开发者可以追踪“完成教程学习”或“完成关卡”等事件，以便奖励玩家，并提高应用内购买量。",
		"instruction":"",
		"_pageLevelProgress": {
			"_isEnabled": true
		}
	},
		{
		"_id":"c-260",
		"_parentId":"b-260",
		"_type":"component",
		"_component":"graphic",
		"_classes":"",
		"_layout":"right",
		"title":"Facebook SDK",
		"displayTitle":"",
		"body":"",
		"instruction":"",
		"_graphic": {
			"alt": "SDK 应用事件图标",
			"small": "course/en/images/icon_sdk.png",
			"large": "course/en/images/icon_sdk.png"
		},
		"_pageLevelProgress": {
			"_isEnabled": false
		}
	},
	{
		"_id":"c-270",
		"_parentId":"b-270",
		"_type":"component",
		"_component":"text",
		"_classes":"",
		"_layout":"full",
		"title":"与新的优质客户建立联系",
		"displayTitle":"与新的优质客户建立联系",
		"body":"",
		"instruction":"",
		"_pageLevelProgress": {
			"_isEnabled": false
		}
	},
	{
		"_id":"c-272",
		"_parentId":"b-270",
		"_type":"component",
		"_component":"graphic",
		"_classes":"",
		"_layout":"left",
		"title":"自定义受众",
		"displayTitle":"",
		"body":"<h2>自定义受众<h2>",
		"instruction":"",
		"_graphic": {
			"alt": "自定义受众图标",
			"small": "course/en/images/icon_custom.png",
			"large": "course/en/images/icon_custom.png"
		},
		"_pageLevelProgress": {
			"_isEnabled": true
		}
	},
	{
		"_id":"c-275",
		"_parentId":"b-270",
		"_type":"component",
		"_component":"text",
		"_classes":"",
		"_layout":"right",
		"title":"自定义受众",
		"displayTitle":"",
		"body":"借助 Facebook，营销者可根据各种资源精准投放广告：<br><br><ul><li>以<a href='https://www.facebook.com/business/help/221146184973131?helpref=faq_content' target='_blank'> Facebook 主页互动用户</a>创建自定义受众</li><li>利用<a href='https://www.facebook.com/business/a/online-sales/custom-audiences-website' target='_blank'>像素</a>或 <a href='https://www.facebook.com/business/help/1472206006327390/?helpref=hc_fnav' target='_blank'>SDK</a> 数据创建自定义受众</li><li>保障客户隐私安全的前提下，根据所掌握的<a href='https://www.facebook.com/business/help/341425252616329?helpref=faq_content' target='_blank'>现有客户或潜在客户</a>创建自定义受众</li></ul>",
		"instruction":"",
		"_pageLevelProgress": {
			"_isEnabled": false
		}
	},
	{
		"_id":"c-280",
		"_parentId":"b-280",
		"_type":"component",
		"_component":"graphic",
		"_classes":"",
		"_layout":"left",
		"title":"类似受众",
		"displayTitle":"",
		"body":"<h2>类似受众<h2>",
		"instruction":"",
		"_graphic": {
			"alt": "类似受众图标",
			"small": "course/en/images/icon_LaL.png",
			"large": "course/en/images/icon_LaL.png"
		},
		"_pageLevelProgress": {
			"_isEnabled": true
		}
	},
	{
		"_id":"c-285",
		"_parentId":"b-280",
		"_type":"component",
		"_component":"text",
		"_classes":"",
		"_layout":"right",
		"title":"类似受众",
		"displayTitle":"",
		"body":"<a href='https://www.facebook.com/business/help/231114077092092/?helpref=hc_fnav' target='_blank'>类似受众</a>是打入新市场的利器。只需上传源受众，Facebook 就能为您寻找与他们相似的用户。如果商家想要尝试在国际市场中覆盖新客户，类似受众是理想工具。",
		"instruction":"",
		"_pageLevelProgress": {
			"_isEnabled": false
		}
	},
	{
		"_id":"c-290",
		"_parentId":"b-290",
		"_type":"component",
		"_component":"text",
		"_classes":"",
		"_layout":"full",
		"title":"地区定位",
		"displayTitle":"",
		"body":"可以考虑类似受众的下列特殊用法：<br><br><ul><li><strong>国际类似受众</strong>：一家欧洲电商公司打算进军拉丁美洲市场。他们可以选择西班牙和葡萄牙现有的高价值客户作为源受众，然后创建类似受众，在其他单个目标国家/地区定位行为与源受众相似的 Facebook 用户，向他们投放广告。</li><br><li><strong>多国类似受众</strong>让营销者能够找到不同国家/地区的受众：例如，营销者以加拿大客户为源受众创建类似受众，可以面向居住在澳大利亚和新西兰的相似用户投放广告。源受众可以来自一个或多个国家/地区，类似受众也可以包含来自任意数量目标国家/地区的用户。您可以根据下列数据生成类似受众：<ul><li>客户关系管理数据库 </li><li>网站访客（像素）</li><li>移动应用客户 (SDK)</li><li>主页关注者（通过受众分析获得）</li></ul></li></ul><br><br><h2>地区定位</h2>通过广告管理工具和 Power Editor 中的地区定位选项，您可以单个按国家/地区投放广告系列、广告组和广告，也可选择面向全球、横跨特定区域或多座城市营销。语言筛选条件可帮您进一步细化这些地理定位范围。<br><br>借助上述定位策略，Facebook 能自动监测广告表现并优化广告投放，以便充分利用您的预算，面向更有助于您实现预期业务目标的地区投放更多广告。如此一来，您便能高效拓展海外业务，少走冤枉路。<br><br><ul><li><strong>全球定位</strong>：让营销者能够在全球各地投放营销活动，或在投放广告时排除特定国家/地区。全球定位功能可帮助实现的主要业务目标包括：<ul><li>定位单次获取费用最低的受众。</li><li>发掘新市场，确保不会错失任何商机。</li><li>跨多个市场优化广告投放。</li></ul></li><br><li><strong>区域定位</strong>：帮助营销者面向特定地理区域（如欧洲）或自由贸易区（如欧洲经济区）营销，且投放广告时可以排除特定国家/地区。Facebook 会自动优化广告投放，面向转化率更高的地区投放更多广告。点此查看完整的最新<a href='https://www.facebook.com/business/help/285255905140138' target='_blank'>可定位区域列表</a>。</li><br><li><strong>多城市定位</strong>：即使营销者此前并非对所选市场内的所有城市都有所了解，多城市定位也能帮助他们增加 Facebook 广告的覆盖人数，更加轻松地将业务拓展到商机较多的大城市。例如，您可以定位印度境内人口超过 500 万的所有城市。如需获取<a href='https://www.facebook.com/business/help/409576432725991' target='_blank'>详细说明和支持多城市定位的市场列表</a>，请访问帮助中心。</li></ul>",
		"instruction":"",
		"_pageLevelProgress": {
			"_isEnabled": true
		}
	},
	{
			"_id": "c-295",
			"_parentId": "b-290",
			"_type": "component",
			"_component": "text",
			"_classes": "",
			"_layout": "full",
			"title": "",
			"displayTitle": "",
			"body": "<div class='wrapper-flex'><div class='flex item1'><img src='course/en/images/tip.png' class='textCompImageCenter'></div><!-- flex item1 end --><div class='flex item2'>应用开发者可使用区域定位功能向下列地区投放广告：<br><br><li>可使用 iTunes 应用商店的所有国家/地区。</li><li>可使用 Android 应用商店的所有国家/地区。</li><li>仅限客户可通过 Android 应用商店完成购买的国家/地区。</li></div><!-- flex item2 end --></div><!-- wrapper-flex end -->",
			"instruction": "",
			"_pageLevelProgress": {
				"_isEnabled": false
			}
	},
	{
			"_id": "c-297",
			"_parentId": "b-290",
			"_type": "component",
			"_component": "text",
			"_classes": "",
			"_layout": "full",
			"title": "",
			"displayTitle": "",
			"body": "以上提及的这些工具和产品结合使用时，能产生最佳效果。如需详细了解，请学习下列 Blueprint 课程：<br><ul><li>受众分析</li><li>Facebook 像素</li><li>Facebook SDK</li><li>定位：自定义受众</li><li>定位：类似受众",
			"instruction": "",
			"_pageLevelProgress": {
				"_isEnabled": false
			}
	},
	{
		"_id": "c-299",
		"_parentId": "b-299",
		"_type": "component",
		"_component": "co-jump",
		"_classes": "color-test",
		"_preLinkBody": "利用 Facebook 数据和独立研究，我们试图提供一些深入分析来助您拓展跨境业务，下面就为您介绍全球市场的 ",
		"_linkBody": "地区定位概览",
		"_postLinkBody": " 。",
		"_link": "#/id/co-300",
		"_graphic": "adapt/css/assets/icon_nextPage.png",
		"_pageLevelProgress": {
			"_isEnabled": false
		}
	},
	{
		"_id":"c-300",
		"_parentId":"b-300",
		"_type":"component",
		"_component":"text",
		"_classes":"",
		"_layout":"full",
		"title":"",
		"displayTitle":"",
		"body":"即便是同一个区域，也存在着文化和经济多样性。所以拓展跨境业务并没有“万能”的解决方案。虽然全球只有四分之一的网购消费者居住在北美和西欧，但这两个地区的网购交易额却占全球网购总量的 40.5%。<sup>1</sup><br><br>全球有近四分之一 (24.2%) 接受调查的商家表示，自 2017 年起，手机购物将成为“对跨境电子商务最具颠覆性的因素”。<sup>1</sup> 建议深入阅读 Facebook IQ 的研究<a href='https://insights.fb.com/2017/04/20/blurring-boundaries/' target='_blank'>逐渐模糊的界限</a>，了解“无界限消费”时代。<br><br>到 2020 年，拥有手机的人数将超过居家用上自来水和电的人数。<sup>3</sup> 此外，接入互联网的人口将创历史地首次超过无网络接入的人口。<sup>4</sup> <br><br>相较于在单一国家/地区投放一条广告，将 Facebook 广告定位到多个国家/地区的用户，可获得更出色的表现。全球、区域和多国家/地区定位具有下列优势：<br><br><ul><li><strong>更高效地利用预算</strong>。如果通过 Facebook 的广告竞拍机制购买广告，您需要设置广告的目标、投放时长和预算，然后选择允许 Facebook 分配广告资金，面向最可能帮助您实现目标的用户群投放广告 — 无论目标是品牌知名度、转化量、参与互动，还是安装量。定位的受众不受国界限制，规模越大，您的预算支配会越高效。</li><br><li><strong>提高工作效率</strong>。扩大单条广告的受众规模，减少需要管理的广告总数，这能为营销团队节约时间。</li><br><li><strong>更有价值的指标</strong>。看到广告的受众越多，报告的广告数据就越充足，由此您就可以从所投放的每个大规模营销活动中了解到更多信息。</li></ul><br>您最初定位的受众规模越大，Facebook 获得的数据就越多。这些数据稍后可以用于向这些用户群进行更精准的营销和再营销，所以请务必从长计议。",
		"instruction":"",
		"_pageLevelProgress": {
			"_isEnabled": true
		}
	},
	{
		"_id":"c-310",
		"_parentId":"b-310",
		"_type":"component",
		"_component":"accordion",
		"_classes":"",
		"_layout":"full",
		"title": "地域市场简介",
		"displayTitle": "地域市场简介",
		"body": "本部分只是概括地介绍跨境零售业当今的形势和 Facebook 在全球市场的渗透情况，不宜作为营销指南或建议。",
		"instruction": "",
		"_items": [
			{
				"title": "亚太",
				"body": "在总零售额排名前四的国家/地区中，有三个位于亚太 (APAC) 区：排名第一的中国、排名第三的日本，以及排名第四的印度（排名第二的是美国）。APAC 地区的总购买额占全球零售额的 40.8%，其中有 12.1% 属于网购，这一比率在所有地区中排名第一。<sup>5</sup><br><br><h2>东亚</h2>在亚太地区内，韩国是最喜欢在外国网站购物的国家，并且在全球范围内，韩国是最多人认为在外国网站（尤其是美国网站）购物是安全的国家。<sup>6</sup> 尽管 40% 的日本消费者表示他们最近一次海外购物发生在美国网站上，但他们在亚太国家购物的可能性比在其他地区购物的可能性高三倍以上。<sup>7</sup><br><br><h2>南亚和东南亚</h2>2016 年，印度消费者向海外商家购买频率最高的是时尚产品 (30.1%)、移动设备和应用 (24.0%)，以及电子产品 (20.4%)。在最主要以 3G 网络连接互联网的印度，数字化意味着移动化，所以打造针对移动端优化的购物体验是进军这一市场的关键。大量印度消费者出于零售商的信誉度 (62%) 和对商品品质的追求 (62%) 向美国零售商跨境购物。在 2016 年，美国吸引了印度 14% 的跨境购物量，在印度消费者的跨境购物目的地中遥遥领先于排名第二和第三的英国 (6%) 和中国 (5%)。<sup>8</sup> <br><br>在马来西亚，人们的上网时间中有 19% 花在 Facebook 上：<sup>9</sup> 其中 70% 的人会在购物之前通过 Facebook 了解或搜索信息，75% 赞了商家的 Facebook 主页。<sup>10</sup><br><br>在泰国，95% 以上的人使用至少两个具备上网功能的设备；1/3 的人会经常在三个设备间切换。<sup>11</sup> 77% 的泰国用户赞了商家的 Facebook 主页，而在手机游戏发现方面，有 56% 是来自 Facebook。<sup>12</sup> 泰国是东南亚地区最大的游戏市场，玩家数量多达 1930 万，且其中 55% 付费玩游戏。在泰国，最大的玩家群体是 21-25 岁的女性。<sup>13</sup><br><br><h2>澳大利亚和新西兰</h2>澳大利亚的电子商务市场高度成熟，其中跨境购物占主导地位：在澳大利亚，25 岁以下的人群中有 82% 的人、25 岁以上的人群中有 75% 的人都曾在其他国家/地区的网站中购物。<sup>14</sup> 他们习惯于较长的配送时间，也不会期望免运费。在通过 Facebook 发现商家的澳大利亚用户中，有 60% 的人会花时间浏览商家主页，或访问商家的网站了解详情。<sup>15</sup><br><br>2016 年，澳大利亚和新西兰的跨境购物涉及的主要类别是服装/鞋靴、书籍/游戏/DVD，以及儿童玩具。<sup>16</sup>对于加拿大的零售商来说，澳大利亚市场充满商机：虽然只有 7% 的澳大利亚用户曾在加拿大网站购物，但 46% 的人表示他们愿意在加拿大网站购物。<sup>17</sup>"
			},
			{
				"title": "欧洲",
				"body": "虽然西欧地区的零售额呈缓慢发展之势，但网购的发展势头迅猛：网购额在总零售额中的占比达到 8.3%（此比例在全球排名第二）。意大利和西班牙的跨境网络零售额最高，而德国用户的购买金额最少。但在 19 个欧洲国家中，有 18 个国家的用户表示首选在德国网站购物。2016 年，欧洲最热门的消费类别是服装/鞋靴（占购买量的 16%）和电子产品（占购买量的 12%）。<sup>18</sup><br><br><h2>西欧和北欧</h2>葡萄牙是欧洲地区跨境电子消费最活跃的国家，有 86% 的人表示曾在其他国家/地区的网站购物。<sup>19</sup> 就使用台式电脑或笔记本电脑进行网购的用户所占百分比而言，法国仅次于葡萄牙；就进行跨境网购的用户人数而言，法国位居全球第一。2016 年，有 59% 的法国用户网购了外国商品：热门的消费类别是娱乐产品、化妆品、科技产品和奢侈时尚产品。在法国的跨境消费者中，有超过一半的人从欧盟其他国家购物 — 主要是德国和英国。<sup>20</sup><br><br>在欧洲地区，英国的跨境网购率最低，只有 33%。英国用户会在德国和美国网站中购买国内没有的商品，在中国网站购买低价商品。有 3/4 以上的英国用户表示，不愿意在其他语言的网站中购物。<sup>21</sup><br><br>在北欧，低价和丰富的商品种类是跨境电子商务的关键发展驱动力。在芬兰和挪威，可能跨境购物的人群广泛分布在各年龄段；在挪威，男性 (55%) 比女性 (44%) 更可能跨境购物。<sup>22</sup><br><br><h2>中欧和东欧</h2>中欧和东欧地区的电子商务发展缓慢，俄罗斯的网购消费额在地区总额中的占比达到了 36%。2016 年，81.1% 的德国用户进行了网购（在德国用户在家使用笔记本电脑和台式电脑的时间中，76% 用于网购），但只有 26% 的用户从外国网站购物，只有 14% 的用户使用信用卡在线支付。<sup>23</sup> 德国是欧洲最大的视频游戏市场，在全球排名第五。<sup>24</sup> 2016 年，俄罗斯有 62% 的网购消费者（1000 万人）从外国网站购物，但只有 10% 的消费者从美国商家购物。36% 放弃购买的情况由运费导致，20% 放弃的用户则表示是因为无法在网站使用其首选的支付方式。<sup>25</sup>"
			},
			{
				"title": "中东和非洲 ",
				"body": "中东和非洲是全球最小的零售电子商务市场，但随着埃及、肯尼亚、尼日利亚和南非等市场的增长，这一地区仍有望从 2017 年开始实现相较于其他地区最迅速的增长。<sup>26</sup><br><br>中东和北非是发展速度最快的移动视频市场之一，但其中各个国家的智能手机普及率并不相同：沙特阿拉伯和阿联酋的普及率超过 70%，而埃及的普及率还不到 25%。<sup>27</sup><br><br>在撒哈拉以南非洲地区，每月访问 Facebook 的用户数量超过 9500 万，其中 97% 是通过移动设备访问。<sup>28</sup><br><br>Facebook IQ 于 2017 年就“<a href='https://insights.fb.com/2017/04/04/journeys-of-connectivity/' target='_blank'>撒哈拉以南非洲地区的人际连接性和网络连接性</a>”开展的一项研究发现，虽然该区域用户的“默认状态”常常是“关掉数据网络”，但在肯尼亚、尼日利亚和南非，仍有 78% 的用户会出于社交或通信相关的原因上网。<br><br><img src='course/en/images/ssa_connect.png'><br><br>因此，相较于全球其他地区的用户而言，这些市场中千禧一代用户更可能（可能性达前者的 120%）将 Facebook 和 Instagram 之类的移动应用作为了解新商品或服务的唯一渠道。"
			},
			{
				"title": "拉丁美洲地区",
				"body": "拉丁美洲地区的电子商务采用率相当低：2016 年，只有 26.8% 的拉美用户进行了网购。<sup>29</sup> 热门的消费类别是服装/鞋靴、美容/化妆品和消费电子产品。<sup>30</sup> <br><br>在墨西哥，2016 年仅 20% 的人口进行了网购，但有 56% 的网购消费者曾在外国网站购物。2017 年，外国网购消费额预计增长 37%。<sup>31</sup> 在进行过网购的秘鲁消费者中，有 77% 的人曾跨境购物，这一占比在地区内最高。<sup>32</sup> 2016 年，有 25.3% 的巴西人进行了网购，包括国内和国外网购。而在 2017 年，巴西的跨境网购消费额预计增长 47%。<sup>33</sup>"
			},
			{
				"title": "北美",
				"body": "根据最近的一项研究，在全球范围内，北美地区的商家实施跨境拓展策略的可能性最低：38% 的商家没有相应的计划。<sup>34</sup> 美国和加拿大的网购者在文化和经济方面有许多相似之处，但在跨境购物行为方面却截然相反：64% 的加拿大消费者曾在外国的零售电商网站中购物，而 69% 的美国消费者仅在国内购物。<sup>35</sup><br><br>2016 年，有 77% 的美国消费者进行了网购，但其中跨境网购的消费者还不足 1/3。64% 的购物通过台式电脑或笔记本电脑完成，发生在智能手机和平板电脑上的购物分别只有 18% 和 12%。美国消费者表示，导致他们放弃跨境购物的最主要原因是配送耗时长 (40%)，其次是运费高 (22%)，最后是无法追踪包裹的配送情况 (20%)。<sup>36</sup> <br><br>加拿大跨境购物消费者的数量已接近饱和，2017 年预计会减少 3%。大部分加拿大人会从美国 (56%)、中国 (18%) 和英国 (7%) 跨境购物。和英国消费者的心理类似，加拿大消费者同样会受美国网站中更丰富的商品种类吸引，他们也会因为更低的价格而选择中国网站。免运费是促成 58% 的加拿大跨境购物的因素。81% 的购物通过台式电脑或笔记本电脑完成。<sup>37</sup> "
			}
		],
		"_pageLevelProgress": {
			"_isEnabled": true
		}
 	},
	{
		"_id":"c-320",
		"_parentId":"b-320",
		"_type":"component",
		"_component":"text",
		"_classes":"",
		"_layout":"full",
		"title":"",
		"displayTitle":"",
		"body":"<sup>1、2</sup> 数据来源：Worldwide Retail Ecommerce Sales（eMarketer，2016 年 8 月）<br><sup>3</sup> 数据来源：Cisco Visual Networking Index（Cisco，2016 年 6 月）<br><sup>4</sup> 数据来源：US Retail Mcommerce Sales（eMarketer，2017 年 2 月）<br><sup>5</sup> 数据来源：Worldwide Retail Ecommerce Sales（eMarketer，2016 年 8 月）<br><sup>6、7、8</sup> 数据来源：Cross-Border eCommerce 2017（eMarketer，2017 年 3 月）<br><sup>9</sup> 数据来源：Facebook Audience Insights Tool（2015 年 12 月 6 日 - 2016 年 1 月 6 日）<br><sup>10</sup> 数据来源：Malaysian on Facebook（Facebook 委托 TNS 开展的调研，2014 年，样本人数 N = 1069）<br><sup>11</sup> 数据来源：“Multi-device Study”，Facebook 委托 GfK 开展的调研，对象为澳大利亚、泰国和中国台湾年龄介于 18-54 岁，且每周至少使用一次智能手机、平板电脑、台式电脑或笔记本电脑的用户，2015 年 10-11 月<br><sup>12</sup> 数据来源：Thais on Facebook（Facebook 委托 TNS 开展的调研，2014 年 6 月，样本人数 N = 1005）<br><sup>13</sup> 数据来源：Global Games Market Report（Newzoo，2015 年）<br><sup>14</sup> 数据来源：Cross-Border eCommerce 2016（eMarketer，2016 年 2 月）<br><sup>15</sup> 数据来源：Aussies on Facebook 2015（Facebook 委托 Nielsen 开展的调查，2015 年 1 月，样本人数 N = 1000）<br><sup>16</sup> 数据来源：Cross-Border eCommerce 2017（eMarketer，2017 年 3 月）<br><sup>17</sup> 数据来源：Location of Sellers from Which Internet Users in Australia Have Made vs.Would Consider Making a Cross-Border Digital Purchase（eMarketer，2016 年 1 月）<br><sup>18、19、20、21、22、23</sup> 数据来源：Cross-Border eCommerce 2017（eMarketer，2017 年 3 月）<br><sup>24</sup> 数据来源：Global Games Market Report（Newzoo，2015 年）<br><sup>25、26</sup> 数据来源：Cross-Border eCommerce 2017（eMarketer，2017 年 3 月）<br><sup>27</sup> 数据来源：Ramadan is the month of mobile on Facebook，2015 年 4 月<br><sup>28</sup> 数据来源：Journeys of Connectivity:How People in Sub-Saharan Africa Come&#160;Online，2017 年 4 月<br><sup>29</sup> 数据来源：Digital Buyer Penetration in Latin America, by Country, 2015-2020（eMarketer，2016 年 8 月）<br><sup>30、31、32、33、34、35、36、37</sup> 数据来源：Cross-Border eCommerce 2017（eMarketer，2017 年 3 月）<br> ",
		"instruction":"",
		"_pageLevelProgress": {
			"_isEnabled": true
		}
	},
	{
		"_id": "c-399",
		"_parentId": "b-399",
		"_type": "component",
		"_component": "co-jump",
		"_classes": "color-test",
		"_preLinkBody": "接下来，我们来学习一些 ",
		"_linkBody": "经验技巧",
		"_postLinkBody": " ，了解如何制定自己的跨境拓展策略。",
		"_link": "#/id/co-400",
		"_graphic": "adapt/css/assets/icon_nextPage.png",
		"_pageLevelProgress": {
			"_isEnabled": false
		}
	},
	{
		"_id":"c-400",
		"_parentId":"b-400",
		"_type":"component",
		"_component":"text",
		"_classes":"",
		"_layout":"full",
		"title":"",
		"displayTitle":"",
		"body":"了解成功的跨境营销案例，学习借鉴可能帮助您实现业务和营销目标的方法与策略。",
		"instruction":"",
		"_pageLevelProgress": {
			"_isEnabled": false
		}
	},
	{
		"_id":"c-410",
		"_parentId":"b-410",
		"_type":"component",
		"_component":"text",
		"_classes":"",
		"_layout":"full",
		"title":"考虑移动展示环境",
		"displayTitle":"考虑移动展示环境",
		"body":"台湾在线交易市场 <a href='https://facebook.com/business/success/pinkoi' target='_blank'>Pinkoi</a> 在超过 47 个国家/地区为艺术家和设计师与钟爱手工设计作品的人群搭建起联系的桥梁。他们选择利用 Facebook 在亚太地区扩大受众规模，以及吸引更多用户访问他们的网站和移动应用。<br><br>Pinkoi 以提高应用安装量为目标投放了<strong>轮播广告</strong> (Carousel Ads)，这种广告可打造优质的交互式体验，但对数据使用的要求却可以很低。他们还利用<strong> Facebook 像素</strong>收集数据，并根据这些数据创建<strong>自定义受众</strong>，面向网站访客再营销。借助像素，Pinkoi 可以根据用户在网站上表现出购买兴趣的商品，向他们推荐类似商品。<br><br>这次营销活动帮助 Pinkoi 成功在台湾、香港和日本市场实现了业务扩张，获得的成效包括：<br><ul></li><li>广告投放期内 50% 的网站访问量来自 Facebook</li><li>单次下载费用比其他广告平台低 50%</li><li>53% 的品牌主页赞来自其他国家/地区</li></ul>",
		"instruction":"",
		"_pageLevelProgress": {
			"_isEnabled": true
		}
	},
	{
		"_id":"c-420",
		"_parentId":"b-420",
		"_type":"component",
		"_component":"text",
		"_classes":"",
		"_layout":"full",
		"title":"在多个市场中测试不同的广告格式",
		"displayTitle":"在多个市场中测试不同的广告格式",
		"body":"<a href='https://facebook.com/business/success/transferwise-2' target='_blank'>Transferwise<a/> 是英国的一家点对点转账服务公司，由两位爱沙尼亚人创办。这家公司旨在帮助用户跨境汇款，而无需支付任何隐性费用，因此实现全球化拓展是公司的核心所在。<br><br>他们结合<strong>像素</strong>开展了 Facebook 转化率提升测试，面向居住在澳大利亚的外籍人士投放链接式广告 (Link Ads) 和<strong>视频广告</strong> (Video Ads) ，并在广告投放期间对比了两者的表现。随后，他们根据与初始广告建立联系的用户创建了<strong>类似受众</strong>。为期 4 周的广告获得了下列成效：注册量提高 24%，应用安装量增加 250%，潜在用户数量增加 2 倍。",
		"instruction":"",
		"_pageLevelProgress": {
			"_isEnabled": true
		}
	},
	{
		"_id":"c-430",
		"_parentId":"b-430",
		"_type":"component",
		"_component":"text",
		"_classes":"",
		"_layout":"full",
		"title":"利用视频吸引受众",
		"displayTitle":"利用视频吸引受众",
		"body":"<a href='https://www.facebook.com/business/success/unicef-mena' target='_blank'>联合国儿童基金会</a> (UNICEF) 利用 Facebook <strong>视频广告</strong>宣传《儿童权利公约》颁布 25 周年，以期增强公众在这一方面的意识，同时提高中东和北非地区 1.57 亿儿童的权利和福利。<br><br>此营销活动使用了<strong>全球定位功能</strong>，面向最有可能关注相关议题并帮助增强公众意识的人群（例如：新闻记者、政治家、社会活动家、民权和人权领袖）宣传。最终，看到广告的用户数量超过了 690 万，且广告的视频观看量达到了 420 万。",
		"instruction":"",
		"_pageLevelProgress": {
			"_isEnabled": true
		}
	},
	{
		"_id":"c-440",
		"_parentId":"b-440",
		"_type":"component",
		"_component":"text",
		"_classes":"",
		"_layout":"full",
		"title":"利用强大的 Facebook 定位工具",
		"displayTitle":"利用强大的 Facebook 定位工具",
		"body":"<a href='https://www.facebook.com/business/success/tyme-2' target='_blank'>TYME</a> 是美国的一家美发造型用品制造商。该公司标志性的卷发器和直发器所采用的技术由首席执行官 Jacynda Smith 研发。为提升品牌知名度和在线销量，他们利用<strong>国际类似受众</strong>在竞争激烈的欧洲市场推广这些产品。<br><br>首先，公司与 Facebook 广告优化经销商合作创建了广泛定位的广告，面向对时尚和美发感兴趣、年龄介于 18-65 岁且使用英语的女性受众投放。此外，他们还使用现有的<strong>自定义受众</strong>（根据高价值美国客户创建）作为种子受众，创建了欧洲地区国际类似受众。<br><br>接下来，他们根据受众分析找到与第一波广告互动的用户，向他们投放以介绍使用方法为主的再定位营销活动。这种两阶段式策略获得的成效如下：<ul><li>漏斗顶层：知名度广告带来 1.6 倍的广告花费回报</li><li>漏斗中层：教学式广告带来 2.9 倍的广告花费回报</li><li>单次获取费用降低 52%</li></ul></br>TYME 的销售和营销总监 Kendrick Reeg 认为，在公司从小型家族业务成长为爱荷华州蓬勃发展的地方企业的过程中，Facebook 发挥了重大作用：“Facebook 既是连接世界的纽带，也是实现商务发展的媒介，这正是我们需要的平台。如果我们早 5 年创立公司，取得的成绩可能连现在的一半都比不上。”",
		"instruction":"",
		"_pageLevelProgress": {
			"_isEnabled": true
		}
	},
	{
		"_id":"c-450",
		"_parentId":"b-450",
		"_type":"component",
		"_component":"text",
		"_classes":"",
		"_layout":"full",
		"title":"跨平台再营销",
		"displayTitle":"跨平台再营销",
		"body":"都柏林的 <a href='https://www.facebook.com/business/success/huuuge-games' target='_blank'>Huuuge Games</a> 将<strong>自定义受众、类似受众</strong>与<strong>全球定位功能</strong>和 <strong>SDK 应用事件</strong>结合使用，希望提高游戏安装量和品牌知名度。<br><br>首先，他们以全球使用英语的用户为目标人群投放了广告。随后，他们根据各地的具体情况调整广告的创意和文案，并在单个国家/地区中，面向与此前广告的互动用户相似的类似受众营销。",
		"instruction":"",
		"_pageLevelProgress": {
			"_isEnabled": true
		}
	},
	{
		"_id":"c-460",
		"_parentId":"b-460",
		"_type":"component",
		"_component":"survey-radio",
		"_classes":"",
		"_layout":"left",
		"title":"Huuuge 的营销目标和成效",
		"displayTitle":"",
		"body":"",
		"instruction":"从菜单中选择营销目标，查看相应的营销成效。",
		"_isComplete": false,
		"userSelection": [],
		"_items": [
			{
				"label": "在新市场中提高品牌知名度",
				"value": "1"
			},
			{
				"label": "提高全球的移动端安装量",
				"value": "2"
			},
			{
				"label": "为独特的应用内功能打响知名度",
				"value": "3"
			}
		],
		"_pageLevelProgress": {
			"_isEnabled": false
		}
	},
	{
		"_id":"c-465",
		"_parentId":"b-460",
		"_type":"component",
		"_component":"survey-feedback",
		"_classes":"texture_concrete",
		"_layout":"right",
		"title":"",
		"displayTitle":"",
		"body":"此次跨平台营销活动的成效如下：<br><ul><li>单次安装费用降低 50%</li><li>点击安装率提高 12%</li><li>广告花费回报增加 22%",
		"instruction":"",
		"_isComplete": false,
		"feedbackBody": "",
		"feedbackPostBody": "",
		"prefix": "",
		"suffix": "",
		"limitFeedback": true,
		"feedback": [
			{
				"resultsFor": ["c-460"],
				"condition": "is",
				"value": "1",
				"response": "<h2>品牌知名度</h2>公司利用<strong>受众分析</strong>数据，在各市场中对广告创意和文案进行了 A/B 测试。<br><br><strong>全球定位功能</strong>让他们能够从大量数据库中提取有用信息，从而获得最佳成效。"
			},
			{
				"resultsFor": ["c-460"],
				"condition": "is",
				"value": "2",
				"response": "<h2>应用安装量</h2>投放于 <strong>Instagram</strong> 的广告帮助提升了知名度，并使每月安装量增加了 5 倍。"
			},
			{
				"resultsFor": ["c-460"],
				"condition": "is",
				"value": "3",
				"response": "<h2>应用使用率</h2>定位<strong>多国类似受众</strong>的广告让 Huuuge 能够根据玩家在移动游戏中采取的操作高度精准地向他们投放广告。这些应用事件均通过<strong> SDK</strong> 报告。"
			}
		],
		"_pageLevelProgress": {
			"_isEnabled": false
		}
	},
	{
		"_id":"c-470",
		"_parentId":"b-470",
		"_type":"component",
		"_component":"text",
		"_classes":"",
		"_layout":"full",
		"title":"Instagram 广告助力宣传",
		"displayTitle":"Instagram 广告助力宣传",
		"body":"要在 Instagram 取得理想成效，广告必须精心设计，具有品牌特征，突出产品概念并持续投放。<br><br>瑞典的设计公司 <a href='https://facebook.com/business/success/tom-hope' target='_blank'>Tom Hope</a> 在 Instagram 和 Facebook 公布航海系列手环的样版后，大量用户表现出了浓厚的兴趣，他们于是决定开始批量生产和销售这一系列的手环。<br><br>为进一步提升知名度和参与度，这家公司结合使用 Facebook 和 <strong>Instagram 广告</strong>与<strong>像素转化追踪</strong>，跟踪用户点击广告、将商品加入购物车或完成购买的操作，了解他们的兴趣。<br><br>在 2016 年 2 月 6 日到 3 月 24 日这段时间内，Tom Hope 的营销活动令人难以置信地覆盖了 450 万的 Facebook 用户，带来了 383,000 次帖文互动，且单次帖文互动费用仅为 $0.02 美元。",
		"instruction":"",
		"_pageLevelProgress": {
			"_isEnabled": true
		}
	},
	{
		"_id":"c-480",
		"_parentId":"b-480",
		"_type":"component",
		"_component":"text",
		"_classes":"",
		"_layout":"full",
		"title":"继续学习 Blueprint 课程",
		"displayTitle":"学无止境",
		"body":"轮播广告、全屏广告 (Canvas Ads)、精品栏广告 (Collection Ads)，该如何选择？如需了解 Facebook、Instagram 和 Audience Network 支持的不同广告类型，请学习其他 Blueprint 课程：<br><br><ul><li>Audience Network：扩展 Facebook 营销活动的覆盖范围</li><li>Audience Network 原生广告</li><li>精品栏广告：吸引移动端消费者完成购买</li><li>利用互动性强的全屏广告吸引受众</li><li>利用轮播广告讲述品牌故事</li><li>利用动态广告将购物者转化为实际交易客户</li><li>Instagram 广告的购买方式</li><li>利用 Instagram Stories 呈现精彩品牌故事</li><li>移动版动态版位的视频广告创意技巧</li></ul><br>您还可以前往创意馆，查看<a href='https://facebook.com/ads/creativehub/formats/' target='_blank'>各个 Facebook 广告格式的</a>成功示例。",
		"instruction":"",
		"_pageLevelProgress": {
			"_isEnabled": true
		}
	},
	{
		"_id": "c-499",
		"_parentId": "b-499",
		"_type": "component",
		"_component": "co-jump",
		"_classes": "color-test",
		"_preLinkBody": "最后，我们来做一个快速的 ",
		"_linkBody": "知识测验",
		"_postLinkBody": " ，巩固所学知识。",
		"_link": "#/id/co-500",
		"_graphic": "adapt/css/assets/icon_nextPage.png",
		"_pageLevelProgress": {
			"_isEnabled": false
		}
	},
	{
		"_id":"c-500",
		"_parentId":"b-500",
		"_type":"component",
		"_component":"mcq",
		"_classes":"",
		"_layout":"full",
		"_attempts":1,
		"_setCompletionOn":"inview",
		"_shouldDisplayAttempts": false,
		"_questionWeight":1,
		"_isRandom":false,
		"_selectable":1,
		"title": "问题 1/3",
		"displayTitle": "问题 1/3",
		"body": "营销者可以使用 Facebook 像素和 SDK 实现哪些目标？",
		"instruction": "",
		"_items": [
			{
				"text": "发掘潜在客户",
				"_shouldBeSelected":false
			},
			{
				"text": "追踪潜在客户在整个转化漏斗中的体验",
				"_shouldBeSelected":true,
				"feedback":""
			},
			{
				"text": "在新市场中与优质受众建立联系",
				"_shouldBeSelected":false
			},
			{
				"text": "在用户活跃的平台与他们建立联系",
				"_shouldBeSelected":false,
				"feedback":""
			}
		],
		"_feedback":{
			"correct":"回答正确！Facebook 像素和 SDK 可以帮助营销者追踪用户的跨设备体验流程。",
			"_incorrect": {
				"notFinal": "",
				"final": "很遗憾，回答有误。Facebook 像素和 SDK 可以帮助营销者追踪用户的跨设备体验流程。"
			},
			"_buttons": {
				"_submit": {
					"buttonText": "提交",
					"ariaLabel": "点击此处提交答案"
				},
				"_reset": {
					"buttonText": "重置",
					"ariaLabel": "点击此处重置问题"
				},
				"_showCorrectAnswer": {
					"buttonText": "正确答案",
					"ariaLabel": "点击此处显示正确答案"
				},
				"_hideCorrectAnswer": {
					"buttonText": "我的答案",
					"ariaLabel": "点击此处显示您的答案"
				},
				"_showFeedback": {
					"buttonText": "显示反馈",
					"ariaLabel": "点击此处再次查看问题反馈"
				},
				"remainingAttemptsText": "次剩余",
				"remainingAttemptText": "最后一次尝试",
				"disabledAriaLabel": "该按钮目前不可用。"
			},
			"_pageLevelProgress": {
				"_isEnabled": true
			}
		}
	},
	{
		"_id":"c-510",
		"_parentId":"b-510",
		"_type":"component",
		"_component":"mcq",
		"_classes":"",
		"_layout":"full",
		"_attempts":1,
		"_setCompletionOn":"inview",
		"_shouldDisplayAttempts": false,
		"_questionWeight":1,
		"_isRandom":false,
		"_selectable":1,
		"title": "问题 2/3",
		"displayTitle": "问题 2/3",
		"body": "营销者可以在哪里查看有关应用互动情况的指标？",
		"instruction": "",
		"_items": [
			{
				"text": "受众分析",
				"_shouldBeSelected":true
			},
			{
				"text": "Facebook IQ",
				"_shouldBeSelected":false,
				"feedback":""
			},
			{
				"text": "Facebook SDK",
				"_shouldBeSelected":false
			},
			{
				"text": "Facebook 像素",
				"_shouldBeSelected":false,
				"feedback":""
			}
		],
		"_feedback":{
			"correct":"回答正确！受众分析是主页的数据和报告面板，提供关于用户与应用互动情况的数据。",
			"_incorrect": {
				"notFinal": "",
				"final": "很遗憾，回答错误！受众分析是主页的数据和报告面板，其中包含像素事件和 SDK 事件的数据。"
			},
			"_buttons": {
				"_submit": {
					"buttonText": "提交",
					"ariaLabel": "点击此处提交答案"
				},
				"_reset": {
					"buttonText": "重置",
					"ariaLabel": "点击此处重置问题"
				},
				"_showCorrectAnswer": {
					"buttonText": "正确答案",
					"ariaLabel": "点击此处显示正确答案"
				},
				"_hideCorrectAnswer": {
					"buttonText": "我的答案",
					"ariaLabel": "点击此处显示您的答案"
				},
				"_showFeedback": {
					"buttonText": "显示反馈",
					"ariaLabel": "点击此处再次查看问题反馈"
				},
				"remainingAttemptsText": "次剩余",
				"remainingAttemptText": "最后一次尝试",
				"disabledAriaLabel": "该按钮目前不可用。"
			},
			"_pageLevelProgress": {
				"_isEnabled": true
			}
		}
	},
	{
		"_id":"c-520",
		"_parentId":"b-520",
		"_type":"component",
		"_component":"mcq",
		"_classes":"",
		"_layout":"full",
		"_attempts":1,
		"_setCompletionOn":"inview",
		"_shouldDisplayAttempts": false,
		"_questionWeight":1,
		"_isRandom":false,
		"_selectable":1,
		"title": "问题 3/3",
		"displayTitle": "问题 3/3",
		"body": "某营销团队想要面向某区域内使用英语的用户投放广告，并排除四个国家/地区，他们应该怎么做？",
		"instruction": "",
		"_items": [
			{
				"text": "采用区域定位结合国家/地区排除功能",
				"_shouldBeSelected":true
			},
			{
				"text": "采用多城市类似受众结合语言排除功能",
				"_shouldBeSelected":false,
				"feedback":""
			},
			{
				"text": "采用全球定位结合区域排除功能",
				"_shouldBeSelected":false
			},
			{
				"text": "采用区域国际类似受众",
				"_shouldBeSelected":false,
				"feedback":""
			}
		],
		"_feedback":{
			"correct":"太棒啦！区域定位可帮助定位某一区域内的受众。您可以再包含或排除特定国家/地区或语言。",
			"_incorrect": {
				"notFinal": "",
				"final": "回答不准确。区域定位可帮助定位某一区域内的受众。您可以再包含或排除特定国家/地区或语言。"
			},
			"_buttons": {
				"_submit": {
					"buttonText": "提交",
					"ariaLabel": "点击此处提交答案"
				},
				"_reset": {
					"buttonText": "重置",
					"ariaLabel": "点击此处重置问题"
				},
				"_showCorrectAnswer": {
					"buttonText": "正确答案",
					"ariaLabel": "点击此处显示正确答案"
				},
				"_hideCorrectAnswer": {
					"buttonText": "我的答案",
					"ariaLabel": "点击此处显示您的答案"
				},
				"_showFeedback": {
					"buttonText": "显示反馈",
					"ariaLabel": "点击此处再次查看问题反馈"
				},
				"remainingAttemptsText": "次剩余",
				"remainingAttemptText": "最后一次尝试",
				"disabledAriaLabel": "该按钮目前不可用。"
			},
			"_pageLevelProgress": {
				"_isEnabled": true
			}
		}
	},
	{
		"_id":"c-599",
		"_parentId":"b-599",
		"_type":"component",
		"_component":"co-jump",
		"_classes":"color-test",
		"_autoComplete":true,
		"_preLinkBody":"点击下方按钮，结束课程学习。注意：<a href='#'>点击此处</a>确认各章节均已完成。<br>",
		"_linkBody":"<div style = 'text-align:center;padding:8px;'><button class='buttons-action'><b>我已完成本课程的学习</b></button></div><br> ",
		"_postLinkBody":"",
		"_link":"",
		"_pageLevelProgress": {
			"_isEnabled": false
		}
	}

]
